<?xml version="1.0" encoding="UTF-8" standalone="no"?>
<!-- Created with Inkscape (http://www.inkscape.org/) -->

<svg
   xmlns:dc="http://purl.org/dc/elements/1.1/"
   xmlns:cc="http://creativecommons.org/ns#"
   xmlns:rdf="http://www.w3.org/1999/02/22-rdf-syntax-ns#"
   xmlns:svg="http://www.w3.org/2000/svg"
   xmlns="http://www.w3.org/2000/svg"
   xmlns:sodipodi="http://sodipodi.sourceforge.net/DTD/sodipodi-0.dtd"
   xmlns:inkscape="http://www.inkscape.org/namespaces/inkscape"
   width="9.8454647in"
   height="6.5267019in"
   viewBox="0 0 250.0748 165.77823"
   version="1.1"
   id="svg35804"
   inkscape:version="0.92.1 r15371"
   sodipodi:docname="pasos_script_bashawk_4.svg"
   inkscape:export-filename="/home/david/Documentos/4libertades/jornadas/mazinger_awk/pasos_script_bashawk_3.png"
   inkscape:export-xdpi="95"
   inkscape:export-ydpi="95">
  <defs
     id="defs35798" />
  <sodipodi:namedview
     id="base"
     pagecolor="#ffffff"
     bordercolor="#666666"
     borderopacity="1.0"
     inkscape:pageopacity="0.0"
     inkscape:pageshadow="2"
     inkscape:zoom="0.49497475"
     inkscape:cx="321.52403"
     inkscape:cy="286.50907"
     inkscape:document-units="mm"
     inkscape:current-layer="layer1"
     showgrid="false"
     units="in"
     fit-margin-top="0"
     fit-margin-left="0"
     fit-margin-right="0"
     fit-margin-bottom="0"
     inkscape:window-width="1366"
     inkscape:window-height="709"
     inkscape:window-x="0"
     inkscape:window-y="0"
     inkscape:window-maximized="1" />
  <metadata
     id="metadata35801">
    <rdf:RDF>
      <cc:Work
         rdf:about="">
        <dc:format>image/svg+xml</dc:format>
        <dc:type
           rdf:resource="http://purl.org/dc/dcmitype/StillImage" />
        <dc:title></dc:title>
      </cc:Work>
    </rdf:RDF>
  </metadata>
  <g
     inkscape:label="Capa 1"
     inkscape:groupmode="layer"
     id="layer1"
     transform="translate(-18.898809,-95.160713)">
    <rect
       style="opacity:0.628;fill:#a1ff00;fill-opacity:1;stroke:none;stroke-width:0.78862488;stroke-miterlimit:4;stroke-dasharray:none;stroke-dashoffset:0;stroke-opacity:1"
       id="rect35806"
       width="250.0748"
       height="52.153118"
       x="18.898809"
       y="111.73142" />
    <text
       xml:space="preserve"
       style="font-style:normal;font-weight:normal;font-size:9.47865486px;line-height:1.25;font-family:sans-serif;letter-spacing:0px;word-spacing:0px;fill:#000000;fill-opacity:1;stroke:none;stroke-width:0.23696637"
       x="26.835373"
       y="125.64275"
       id="text35816"><tspan
         sodipodi:role="line"
         id="tspan35814"
         x="26.835373"
         y="125.64275"
         style="fill:#0000ff;stroke-width:0.23696637">Paso 4: Integrar con system o getline en awk</tspan></text>
    <rect
       style="opacity:0.628;fill:#ff8080;fill-opacity:1;stroke:none;stroke-width:0.83952165;stroke-miterlimit:4;stroke-dasharray:none;stroke-dashoffset:0;stroke-opacity:1"
       id="rect35834"
       width="250.0748"
       height="59.102127"
       x="18.898809"
       y="175.10986" />
    <text
       xml:space="preserve"
       style="font-style:normal;font-weight:normal;font-size:7.20799065px;line-height:1.25;font-family:sans-serif;letter-spacing:0px;word-spacing:0px;fill:#000000;fill-opacity:1;stroke:none;stroke-width:0.18019977"
       x="43.375122"
       y="138.86981"
       id="text35810"><tspan
         sodipodi:role="line"
         x="43.375122"
         y="138.86981"
         style="stroke-width:0.18019977"
         id="tspan35812">			comando=&quot;cp &quot;$1&quot; ./B&quot;</tspan><tspan
         sodipodi:role="line"
         x="43.375122"
         y="147.87981"
         style="stroke-width:0.18019977"
         id="tspan35997">			comando|getline d;</tspan><tspan
         sodipodi:role="line"
         x="43.375122"
         y="156.88979"
         style="stroke-width:0.18019977"
         id="tspan35999">			close(d);</tspan></text>
    <text
       id="text35897"
       y="185.51111"
       x="26.835373"
       style="font-style:normal;font-weight:normal;font-size:9.47865486px;line-height:1.25;font-family:sans-serif;letter-spacing:0px;word-spacing:0px;fill:#000000;fill-opacity:1;stroke:none;stroke-width:0.23696637"
       xml:space="preserve"><tspan
         style="fill:#0000ff;stroke-width:0.23696637"
         y="185.51111"
         x="26.835373"
         id="tspan35895"
         sodipodi:role="line">Paso 5: Finalizar comprimiendo carpeta B</tspan></text>
    <flowRoot
       xml:space="preserve"
       id="flowRoot35899"
       style="font-style:normal;font-weight:normal;font-size:40px;line-height:1.25;font-family:sans-serif;letter-spacing:0px;word-spacing:0px;fill:#000000;fill-opacity:1;stroke:none"
       transform="matrix(0.19690874,0,0,0.19690874,31.774311,83.5042)"><flowRegion
         id="flowRegion35901"><rect
           id="rect35903"
           width="1160.1687"
           height="223.6582"
           x="44.446712"
           y="541.71051" /></flowRegion><flowPara
         id="flowPara35909">	END{</flowPara><flowPara
         id="flowPara36006">		print &quot;Comprimiendo B&quot;;</flowPara><flowPara
         id="flowPara36008">		comprimir=&quot;tar -czvf textos_con_padre.tar.gz ./B&quot;;</flowPara><flowPara
         id="flowPara36010">		system(comprimir)}</flowPara></flowRoot>  </g>
</svg>
