<?xml version="1.0" encoding="UTF-8" standalone="no"?>
<!-- Created with Inkscape (http://www.inkscape.org/) -->

<svg
   xmlns:dc="http://purl.org/dc/elements/1.1/"
   xmlns:cc="http://creativecommons.org/ns#"
   xmlns:rdf="http://www.w3.org/1999/02/22-rdf-syntax-ns#"
   xmlns:svg="http://www.w3.org/2000/svg"
   xmlns="http://www.w3.org/2000/svg"
   xmlns:sodipodi="http://sodipodi.sourceforge.net/DTD/sodipodi-0.dtd"
   xmlns:inkscape="http://www.inkscape.org/namespaces/inkscape"
   width="9.8454647in"
   height="6.5267019in"
   viewBox="0 0 250.0748 165.77823"
   version="1.1"
   id="svg35804"
   inkscape:version="0.92.1 r15371"
   sodipodi:docname="pasos_script_bashawk_2.svg">
  <defs
     id="defs35798" />
  <sodipodi:namedview
     id="base"
     pagecolor="#ffffff"
     bordercolor="#666666"
     borderopacity="1.0"
     inkscape:pageopacity="0.0"
     inkscape:pageshadow="2"
     inkscape:zoom="0.49497475"
     inkscape:cx="487.58422"
     inkscape:cy="278.68491"
     inkscape:document-units="mm"
     inkscape:current-layer="layer1"
     showgrid="false"
     units="in"
     fit-margin-top="0"
     fit-margin-left="0"
     fit-margin-right="0"
     fit-margin-bottom="0"
     inkscape:window-width="1366"
     inkscape:window-height="709"
     inkscape:window-x="0"
     inkscape:window-y="0"
     inkscape:window-maximized="1" />
  <metadata
     id="metadata35801">
    <rdf:RDF>
      <cc:Work
         rdf:about="">
        <dc:format>image/svg+xml</dc:format>
        <dc:type
           rdf:resource="http://purl.org/dc/dcmitype/StillImage" />
        <dc:title></dc:title>
      </cc:Work>
    </rdf:RDF>
  </metadata>
  <g
     inkscape:label="Capa 1"
     inkscape:groupmode="layer"
     id="layer1"
     transform="translate(-18.898809,-95.160713)">
    <rect
       style="opacity:0.628;fill:#a1ff00;fill-opacity:1;stroke:none;stroke-width:1.17494011;stroke-miterlimit:4;stroke-dasharray:none;stroke-dashoffset:0;stroke-opacity:1"
       id="rect35806"
       width="250.0748"
       height="115.76327"
       x="18.898809"
       y="95.160713" />
    <text
       xml:space="preserve"
       style="font-style:normal;font-weight:normal;font-size:9.47865486px;line-height:1.25;font-family:sans-serif;letter-spacing:0px;word-spacing:0px;fill:#000000;fill-opacity:1;stroke:none;stroke-width:0.23696637"
       x="26.835373"
       y="109.07203"
       id="text35816"><tspan
         sodipodi:role="line"
         id="tspan35814"
         x="26.835373"
         y="109.07203"
         style="fill:#0000ff;stroke-width:0.23696637">Paso 2: crear el comando y mostrarlo</tspan></text>
    <rect
       style="opacity:0.628;fill:#ff8080;fill-opacity:1;stroke:none;stroke-width:0.77228981;stroke-miterlimit:4;stroke-dasharray:none;stroke-dashoffset:0;stroke-opacity:1"
       id="rect35834"
       width="250.0748"
       height="50.014961"
       x="18.898809"
       y="210.92398" />
    <text
       xml:space="preserve"
       style="font-style:normal;font-weight:normal;font-size:7.20799065px;line-height:1.25;font-family:sans-serif;letter-spacing:0px;word-spacing:0px;fill:#000000;fill-opacity:1;stroke:none;stroke-width:0.18019977"
       x="43.375122"
       y="122.29911"
       id="text35810"><tspan
         sodipodi:role="line"
         id="tspan35808"
         x="43.375122"
         y="122.29911"
         style="stroke-width:0.18019977">find -iname &quot;*.txt&quot;|xargs grep &quot;padre&quot;|awk -F':' 'BEGIN{</tspan><tspan
         sodipodi:role="line"
         x="43.375122"
         y="131.3091"
         style="stroke-width:0.18019977"
         id="tspan35877">	OFS=&quot;|&quot;</tspan><tspan
         sodipodi:role="line"
         x="43.375122"
         y="140.31909"
         style="stroke-width:0.18019977"
         id="tspan35879">	}{</tspan><tspan
         sodipodi:role="line"
         x="43.375122"
         y="149.32907"
         style="stroke-width:0.18019977"
         id="tspan35881">		split($1,path,&quot;/&quot;);</tspan><tspan
         sodipodi:role="line"
         x="43.375122"
         y="158.33907"
         style="stroke-width:0.18019977"
         id="tspan35883">		if(path[2]==&quot;A&quot;){</tspan><tspan
         sodipodi:role="line"
         x="43.375122"
         y="167.34904"
         style="stroke-width:0.18019977"
         id="tspan35885">			comando=&quot;cp &quot;$1&quot; ./B&quot;</tspan><tspan
         sodipodi:role="line"
         x="43.375122"
         y="176.35904"
         style="stroke-width:0.18019977"
         id="tspan35887">			print comando</tspan><tspan
         sodipodi:role="line"
         x="43.375122"
         y="185.36903"
         style="stroke-width:0.18019977"
         id="tspan35889">			}</tspan><tspan
         sodipodi:role="line"
         x="43.375122"
         y="194.37901"
         style="stroke-width:0.18019977"
         id="tspan35891">			}'</tspan><tspan
         sodipodi:role="line"
         x="43.375122"
         y="203.38901"
         style="stroke-width:0.18019977"
         id="tspan35893" /><tspan
         sodipodi:role="line"
         x="43.375122"
         y="212.39899"
         style="stroke-width:0.18019977"
         id="tspan35812" /></text>
    <text
       id="text35897"
       y="227.7397"
       x="26.835373"
       style="font-style:normal;font-weight:normal;font-size:9.47865486px;line-height:1.25;font-family:sans-serif;letter-spacing:0px;word-spacing:0px;fill:#000000;fill-opacity:1;stroke:none;stroke-width:0.23696637"
       xml:space="preserve"><tspan
         style="fill:#0000ff;stroke-width:0.23696637"
         y="227.7397"
         x="26.835373"
         id="tspan35895"
         sodipodi:role="line">Paso 3: Ejecutar script A_B.bash y probarlo</tspan></text>
    <flowRoot
       xml:space="preserve"
       id="flowRoot35899"
       style="font-style:normal;font-weight:normal;font-size:40px;line-height:1.25;font-family:sans-serif;letter-spacing:0px;word-spacing:0px;fill:#000000;fill-opacity:1;stroke:none"
       transform="matrix(0.19690874,0,0,0.19690874,31.774311,123.06009)"><flowRegion
         id="flowRegion35901"><rect
           id="rect35903"
           width="755.59412"
           height="234.35539"
           x="44.446712"
           y="541.71051" /></flowRegion><flowPara
         id="flowPara35905">bash A_B.sh |bash</flowPara><flowPara
         id="flowPara35907">ls B/*</flowPara><flowPara
         id="flowPara35909">rm B/*</flowPara></flowRoot>  </g>
</svg>
